SET statement_timeout = 0;
SET lock_timeout = 0;
SET idle_in_transaction_session_timeout = 0;
SET client_encoding = 'UTF8';
SET standard_conforming_strings = on;
SELECT pg_catalog.set_config('search_path', '', false);
 set_config 
------------
 
(1 row)

SET check_function_bodies = false;
SET xmloption = content;
SET client_min_messages = warning;
SET row_security = off;
SET default_tablespace = '';
SET default_table_access_method = heap;
---------------------------------------------------------------------------------------------------;
-- r_fty_10_100m_cr
---------------------------------------------------------------------------------------------------;
CREATE TABLE gisdata.r_fty_10_100m_cr (
    rid integer NOT NULL,
	tile_count integer NOT NULL,
    rast public.raster,
    --CONSTRAINT enforce_height_rast CHECK ((public.st_height(rast) = 2)),
    CONSTRAINT enforce_nodata_values_rast CHECK ((public._raster_constraint_nodata_values(rast) = '{0.0000000000}'::numeric[])),
    CONSTRAINT enforce_num_bands_rast CHECK ((public.st_numbands(rast) = 1)),
    CONSTRAINT enforce_out_db_rast CHECK ((public._raster_constraint_out_db(rast) = '{f}'::boolean[])),
    CONSTRAINT enforce_pixel_types_rast CHECK ((public._raster_constraint_pixel_types(rast) = '{8BUI}'::text[])),
    --CONSTRAINT enforce_same_alignment_rast CHECK (public.st_samealignment(rast, '0100000000000000000000594000000000000059C042F05DE6DA2A21C1BC37C27B8B412FC1000000000000000000000000000000008A15000001000100'::public.raster)),
    CONSTRAINT enforce_scalex_rast CHECK ((round((public.st_scalex(rast))::numeric, 10) = round((100)::numeric, 10)))
    --CONSTRAINT enforce_scaley_rast CHECK ((round((public.st_scaley(rast))::numeric, 10) = round((- (100)::numeric), 10))),
    --CONSTRAINT enforce_srid_rast CHECK ((public.st_srid(rast) = 5514)),
    --CONSTRAINT enforce_width_rast CHECK ((public.st_width(rast) = ANY (ARRAY[2, 1])))
);
ALTER TABLE gisdata.r_fty_10_100m_cr OWNER TO adm_nfiesta_gisdata;
COMMENT ON TABLE gisdata.r_fty_10_100m_cr IS 'Forest types, CR, tile 1 km, pixel 100x100 m.';
CREATE SEQUENCE gisdata.r_fty_10_100m_cr_rid_seq
    AS integer
    START WITH 1
    INCREMENT BY 1
    NO MINVALUE
    NO MAXVALUE
    CACHE 1;
ALTER TABLE gisdata.r_fty_10_100m_cr_rid_seq OWNER TO adm_nfiesta_gisdata;
ALTER SEQUENCE gisdata.r_fty_10_100m_cr_rid_seq OWNED BY gisdata.r_fty_10_100m_cr.rid;
ALTER TABLE ONLY gisdata.r_fty_10_100m_cr ALTER COLUMN rid SET DEFAULT nextval('gisdata.r_fty_10_100m_cr_rid_seq'::regclass);
--ALTER TABLE gisdata.r_fty_10_100m_cr ADD CONSTRAINT enforce_max_extent_rast CHECK ((public.st_envelope(rast) OPERATOR(public.@) '01030000208A150000010000000500000042F05DE61A0D27C1DE1BE1BD85BA32C142F05DE61A0D27C1BC37C27B8B412FC184E0BBCC65581AC1BC37C27B8B412FC184E0BBCC65581AC1DE1BE1BD85BA32C142F05DE61A0D27C1DE1BE1BD85BA32C1'::public.geometry)) NOT VALID;
ALTER TABLE ONLY gisdata.r_fty_10_100m_cr
    ADD CONSTRAINT r_fty_10_100m_cr_pkey PRIMARY KEY (rid);
CREATE INDEX r_fty_10_100m_cr_st_convexhull_idx ON gisdata.r_fty_10_100m_cr USING gist (public.st_convexhull(rast));
---------------------------------------------------------------------------------------------------;
---------------------------------------------------------------------------------------------------;
---------------------------------------------------------------------------------------------------;
-- c_fty_10_100m_cr_bands
---------------------------------------------------------------------------------------------------;
DROP TABLE IF EXISTS gisdata.c_fty_10_100m_cr_bands CASCADE;
CREATE TABLE gisdata.c_fty_10_100m_cr_bands
(
	id integer NOT NULL,
	label character varying(100) NOT NULL,
	description	text,
	CONSTRAINT pkey__c_fty_10_100m_cr_bands PRIMARY KEY (id)
);
COMMENT ON TABLE  gisdata.c_fty_10_100m_cr_bands IS 'Dial bands in raster';
COMMENT ON COLUMN gisdata.c_fty_10_100m_cr_bands.id IS 'Code of category';
COMMENT ON COLUMN gisdata.c_fty_10_100m_cr_bands.label IS 'Label of category';
COMMENT ON COLUMN gisdata.c_fty_10_100m_cr_bands.description IS 'Description of category';
COMMENT ON CONSTRAINT pkey__c_fty_10_100m_cr_bands ON gisdata.c_fty_10_100m_cr_bands IS 'Primay key of the table';
ALTER TABLE gisdata.c_fty_10_100m_cr_bands OWNER TO adm_nfiesta_gisdata;
GRANT ALL ON TABLE gisdata.c_fty_10_100m_cr_bands TO adm_nfiesta_gisdata;
GRANT SELECT, UPDATE, INSERT, DELETE, TRUNCATE ON TABLE gisdata.c_fty_10_100m_cr_bands TO app_nfiesta_gisdata;
GRANT SELECT ON TABLE gisdata.c_fty_10_100m_cr_bands TO public;
INSERT INTO gisdata.c_fty_10_100m_cr_bands(id, label, description)
VALUES
(1, 'dominant leaf type', 'Dominant leaf type.');
---------------------------------------------------------------------------------------------------;
---------------------------------------------------------------------------------------------------;
---------------------------------------------------------------------------------------------------;
-- c_fty_10_100m_cr_category
---------------------------------------------------------------------------------------------------;
--	SELECT * FROM gisdata.c_fty_10_100m_cr_category;
	DROP TABLE IF EXISTS gisdata.c_fty_10_100m_cr_category CASCADE;
	CREATE TABLE gisdata.c_fty_10_100m_cr_category
	(
		id integer NOT NULL,
		label character varying(100) NOT NULL,
		description	text,
		CONSTRAINT pkey__c_fty_10_100m_cr_category PRIMARY KEY (id)
	);
	COMMENT ON TABLE  gisdata.c_fty_10_100m_cr_category IS 'Dial categories in raster';
	COMMENT ON COLUMN gisdata.c_fty_10_100m_cr_category.id IS 'Code of category';
	COMMENT ON COLUMN gisdata.c_fty_10_100m_cr_category.label IS 'Label of category';
	COMMENT ON COLUMN gisdata.c_fty_10_100m_cr_category.description IS 'Description of category';
	COMMENT ON CONSTRAINT pkey__c_fty_10_100m_cr_category ON gisdata.c_fty_10_100m_cr_category IS 'Primay key of the table';
	ALTER TABLE gisdata.c_fty_10_100m_cr_category OWNER TO adm_nfiesta_gisdata;
	GRANT ALL ON TABLE gisdata.c_fty_10_100m_cr_category TO adm_nfiesta_gisdata;
	GRANT SELECT, UPDATE, INSERT, DELETE, TRUNCATE ON TABLE gisdata.c_fty_10_100m_cr_category TO app_nfiesta_gisdata;
	GRANT SELECT ON TABLE gisdata.c_fty_10_100m_cr_category TO public;
	INSERT INTO gisdata.c_fty_10_100m_cr_category (id, label, description)
	VALUES
    (1, 'broadleaved', 'Broadleaved.'),
    (2, 'coniferous', 'Coniferous.');
---------------------------------------------------------------------------------------------------;
---------------------------------------------------------------------------------------------------;
---------------------------------------------------------------------------------------------------;
-- r_tcd_10_100m_cr
---------------------------------------------------------------------------------------------------;
CREATE TABLE gisdata.r_tcd_10_100m_cr (
    rid integer NOT NULL,
	tile_count integer NOT NULL,
    rast public.raster,
    --CONSTRAINT enforce_height_rast CHECK ((public.st_height(rast) = 2)),
    CONSTRAINT enforce_nodata_values_rast CHECK ((public._raster_constraint_nodata_values(rast) = '{0.0000000000}'::numeric[])),
    CONSTRAINT enforce_num_bands_rast CHECK ((public.st_numbands(rast) = 1)),
    CONSTRAINT enforce_out_db_rast CHECK ((public._raster_constraint_out_db(rast) = '{f}'::boolean[])),
    CONSTRAINT enforce_pixel_types_rast CHECK ((public._raster_constraint_pixel_types(rast) = '{8BUI}'::text[])),
    --CONSTRAINT enforce_same_alignment_rast CHECK (public.st_samealignment(rast, '0100000000000000000000594000000000000059C042F05DE6DA2A21C1BC37C27B8B412FC1000000000000000000000000000000008A15000001000100'::public.raster)),
    CONSTRAINT enforce_scalex_rast CHECK ((round((public.st_scalex(rast))::numeric, 10) = round((100)::numeric, 10)))
    --CONSTRAINT enforce_scaley_rast CHECK ((round((public.st_scaley(rast))::numeric, 10) = round((- (100)::numeric), 10))),
    --CONSTRAINT enforce_srid_rast CHECK ((public.st_srid(rast) = 5514)),
    --CONSTRAINT enforce_width_rast CHECK ((public.st_width(rast) = ANY (ARRAY[2, 1])))
);
ALTER TABLE gisdata.r_tcd_10_100m_cr OWNER TO adm_nfiesta_gisdata;
COMMENT ON TABLE gisdata.r_tcd_10_100m_cr IS 'Tree cover density, CR, tile 1 km, pixel 100x100 m.';
CREATE SEQUENCE gisdata.r_tcd_10_100m_cr_rid_seq
    AS integer
    START WITH 1
    INCREMENT BY 1
    NO MINVALUE
    NO MAXVALUE
    CACHE 1;
ALTER TABLE gisdata.r_tcd_10_100m_cr_rid_seq OWNER TO adm_nfiesta_gisdata;
ALTER SEQUENCE gisdata.r_tcd_10_100m_cr_rid_seq OWNED BY gisdata.r_tcd_10_100m_cr.rid;
ALTER TABLE ONLY gisdata.r_tcd_10_100m_cr ALTER COLUMN rid SET DEFAULT nextval('gisdata.r_tcd_10_100m_cr_rid_seq'::regclass);
--ALTER TABLE gisdata.r_tcd_10_100m_cr ADD CONSTRAINT enforce_max_extent_rast CHECK ((public.st_envelope(rast) OPERATOR(public.@) '01030000208A150000010000000500000042F05DE61A0D27C1DE1BE1BD85BA32C142F05DE61A0D27C1BC37C27B8B412FC184E0BBCC65581AC1BC37C27B8B412FC184E0BBCC65581AC1DE1BE1BD85BA32C142F05DE61A0D27C1DE1BE1BD85BA32C1'::public.geometry)) NOT VALID;
ALTER TABLE ONLY gisdata.r_tcd_10_100m_cr
    ADD CONSTRAINT r_tcd_10_100m_cr_pkey PRIMARY KEY (rid);
CREATE INDEX r_tcd_10_100m_cr_st_convexhull_idx ON gisdata.r_tcd_10_100m_cr USING gist (public.st_convexhull(rast));
---------------------------------------------------------------------------------------------------;
---------------------------------------------------------------------------------------------------;
---------------------------------------------------------------------------------------------------;
-- c_tcd_10_100m_cr_bands
---------------------------------------------------------------------------------------------------;
DROP TABLE IF EXISTS gisdata.c_tcd_10_100m_cr_bands CASCADE;
CREATE TABLE gisdata.c_tcd_10_100m_cr_bands
(
	id integer NOT NULL,
	label character varying(100) NOT NULL,
	description	text,
	CONSTRAINT pkey__c_tcd_10_100m_cr_bands PRIMARY KEY (id)
);
COMMENT ON TABLE  gisdata.c_tcd_10_100m_cr_bands IS 'Dial bands in raster';
COMMENT ON COLUMN gisdata.c_tcd_10_100m_cr_bands.id IS 'Code of category';
COMMENT ON COLUMN gisdata.c_tcd_10_100m_cr_bands.label IS 'Label of category';
COMMENT ON COLUMN gisdata.c_tcd_10_100m_cr_bands.description IS 'Description of category';
COMMENT ON CONSTRAINT pkey__c_tcd_10_100m_cr_bands ON gisdata.c_tcd_10_100m_cr_bands IS 'Primay key of the table';
ALTER TABLE gisdata.c_tcd_10_100m_cr_bands OWNER TO adm_nfiesta_gisdata;
GRANT ALL ON TABLE gisdata.c_tcd_10_100m_cr_bands TO adm_nfiesta_gisdata;
GRANT SELECT, UPDATE, INSERT, DELETE, TRUNCATE ON TABLE gisdata.c_tcd_10_100m_cr_bands TO app_nfiesta_gisdata;
GRANT SELECT ON TABLE gisdata.c_tcd_10_100m_cr_bands TO public;
INSERT INTO gisdata.c_tcd_10_100m_cr_bands (id, label, description)
VALUES
(1, 'tree cover density', 'Tree Cover Density.');
---------------------------------------------------------------------------------------------------;
---------------------------------------------------------------------------------------------------;
---------------------------------------------------------------------------------------------------;
-- r_gfch_10_100m_cr
---------------------------------------------------------------------------------------------------;
CREATE TABLE gisdata.r_gfch_10_100m_cr (
    rid integer NOT NULL,
	tile_count integer NOT NULL,
    rast public.raster,
    --CONSTRAINT enforce_height_rast CHECK ((public.st_height(rast) = 2)),
    CONSTRAINT enforce_nodata_values_rast CHECK ((public._raster_constraint_nodata_values(rast) = '{0.0000000000}'::numeric[])),
    CONSTRAINT enforce_num_bands_rast CHECK ((public.st_numbands(rast) = 1)),
    CONSTRAINT enforce_out_db_rast CHECK ((public._raster_constraint_out_db(rast) = '{f}'::boolean[])),
    CONSTRAINT enforce_pixel_types_rast CHECK ((public._raster_constraint_pixel_types(rast) = '{8BUI}'::text[])),
    --CONSTRAINT enforce_same_alignment_rast CHECK (public.st_samealignment(rast, '0100000000000000000000594000000000000059C042F05DE6DA2A21C1BC37C27B8B412FC1000000000000000000000000000000008A15000001000100'::public.raster)),
    CONSTRAINT enforce_scalex_rast CHECK ((round((public.st_scalex(rast))::numeric, 10) = round((100)::numeric, 10)))
    --CONSTRAINT enforce_scaley_rast CHECK ((round((public.st_scaley(rast))::numeric, 10) = round((- (100)::numeric), 10))),
    --CONSTRAINT enforce_srid_rast CHECK ((public.st_srid(rast) = 5514)),
    --CONSTRAINT enforce_width_rast CHECK ((public.st_width(rast) = ANY (ARRAY[2, 1])))
);
ALTER TABLE gisdata.r_gfch_10_100m_cr OWNER TO adm_nfiesta_gisdata;
COMMENT ON TABLE gisdata.r_gfch_10_100m_cr IS 'Global forest change, CR, tile 1 km, pixel 100x100 m.';
CREATE SEQUENCE gisdata.r_gfch_10_100m_cr_rid_seq
    AS integer
    START WITH 1
    INCREMENT BY 1
    NO MINVALUE
    NO MAXVALUE
    CACHE 1;
ALTER TABLE gisdata.r_gfch_10_100m_cr_rid_seq OWNER TO adm_nfiesta_gisdata;
ALTER SEQUENCE gisdata.r_gfch_10_100m_cr_rid_seq OWNED BY gisdata.r_gfch_10_100m_cr.rid;
ALTER TABLE ONLY gisdata.r_gfch_10_100m_cr ALTER COLUMN rid SET DEFAULT nextval('gisdata.r_gfch_10_100m_cr_rid_seq'::regclass);
--ALTER TABLE gisdata.r_gfch_10_100m_cr ADD CONSTRAINT enforce_max_extent_rast CHECK ((public.st_envelope(rast) OPERATOR(public.@) '01030000208A150000010000000500000042F05DE61A0D27C1DE1BE1BD85BA32C142F05DE61A0D27C1BC37C27B8B412FC184E0BBCC65581AC1BC37C27B8B412FC184E0BBCC65581AC1DE1BE1BD85BA32C142F05DE61A0D27C1DE1BE1BD85BA32C1'::public.geometry)) NOT VALID;
ALTER TABLE ONLY gisdata.r_gfch_10_100m_cr
    ADD CONSTRAINT r_gfch_10_100m_cr_pkey PRIMARY KEY (rid);
CREATE INDEX r_gfch_10_100m_cr_st_convexhull_idx ON gisdata.r_gfch_10_100m_cr USING gist (public.st_convexhull(rast));
---------------------------------------------------------------------------------------------------;
---------------------------------------------------------------------------------------------------;
---------------------------------------------------------------------------------------------------;
-- c_gfch_10_100m_cr_bands
---------------------------------------------------------------------------------------------------;
DROP TABLE IF EXISTS gisdata.c_gfch_10_100m_cr_bands CASCADE;
CREATE TABLE gisdata.c_gfch_10_100m_cr_bands
(
	id integer NOT NULL,
	label character varying(100) NOT NULL,
	description	text,
	CONSTRAINT pkey__c_gfch_10_100m_cr_bands PRIMARY KEY (id)
);
COMMENT ON TABLE  gisdata.c_gfch_10_100m_cr_bands IS 'Dial bands in raster';
COMMENT ON COLUMN gisdata.c_gfch_10_100m_cr_bands.id IS 'Code of category';
COMMENT ON COLUMN gisdata.c_gfch_10_100m_cr_bands.label IS 'Label of category';
COMMENT ON COLUMN gisdata.c_gfch_10_100m_cr_bands.description IS 'Description of category';
COMMENT ON CONSTRAINT pkey__c_gfch_10_100m_cr_bands ON gisdata.c_gfch_10_100m_cr_bands IS 'Primay key of the table';
ALTER TABLE gisdata.c_gfch_10_100m_cr_bands OWNER TO adm_nfiesta_gisdata;
GRANT ALL ON TABLE gisdata.c_gfch_10_100m_cr_bands TO adm_nfiesta_gisdata;
GRANT SELECT, UPDATE, INSERT, DELETE, TRUNCATE ON TABLE gisdata.c_gfch_10_100m_cr_bands TO app_nfiesta_gisdata;
GRANT SELECT ON TABLE gisdata.c_gfch_10_100m_cr_bands TO public;
INSERT INTO gisdata.c_gfch_10_100m_cr_bands (id, label, description)
VALUES
(1, 'global forest change years', 'Global forest change years.');
---------------------------------------------------------------------------------------------------;
---------------------------------------------------------------------------------------------------;
---------------------------------------------------------------------------------------------------;
-- c_gfch_10_100m_cr_category
---------------------------------------------------------------------------------------------------;
--	SELECT * FROM gisdata.c_gfch_10_100m_cr_category;
	DROP TABLE IF EXISTS gisdata.c_gfch_10_100m_cr_category CASCADE;
	CREATE TABLE gisdata.c_gfch_10_100m_cr_category
	(
		id integer NOT NULL,
		label character varying(100) NOT NULL,
		description	text,
		CONSTRAINT pkey__c_gfch_10_100m_cr_category PRIMARY KEY (id)
	);
	COMMENT ON TABLE  gisdata.c_gfch_10_100m_cr_category IS 'Dial categories in raster';
	COMMENT ON COLUMN gisdata.c_gfch_10_100m_cr_category.id IS 'Code of category';
	COMMENT ON COLUMN gisdata.c_gfch_10_100m_cr_category.label IS 'Label of category';
	COMMENT ON COLUMN gisdata.c_gfch_10_100m_cr_category.description IS 'Description of category';
	COMMENT ON CONSTRAINT pkey__c_gfch_10_100m_cr_category ON gisdata.c_gfch_10_100m_cr_category IS 'Primay key of the table';
	ALTER TABLE gisdata.c_gfch_10_100m_cr_category OWNER TO adm_nfiesta_gisdata;
	GRANT ALL ON TABLE gisdata.c_gfch_10_100m_cr_category TO adm_nfiesta_gisdata;
	GRANT SELECT, UPDATE, INSERT, DELETE, TRUNCATE ON TABLE gisdata.c_gfch_10_100m_cr_category TO app_nfiesta_gisdata;
	GRANT SELECT ON TABLE gisdata.c_gfch_10_100m_cr_category TO public;
	INSERT INTO gisdata.c_gfch_10_100m_cr_category (id, label, description)
	VALUES
	(1, '2001', 'Year 2001.'),
	(2, '2002', 'Year 2002.'),
    (3, '2003', 'Year 2003.'),
    (4, '2004', 'Year 2004.'),
	(5, '2005', 'Year 2005.'),
	(6, '2006', 'Year 2006.'),
    (7, '2007', 'Year 2007.'),
    (8, '2008', 'Year 2008.'),
	(9, '2009', 'Year 2009.'),
	(10, '2010', 'Year 2010.'),
    (11, '2011', 'Year 2011.'),
    (12, '2012', 'Year 2012.'),
	(13, '2013', 'Year 2013.'),
	(14, '2014', 'Year 2014.'),
    (15, '2015', 'Year 2015.'),
    (16, '2016', 'Year 2016.'),
	(17, '2017', 'Year 2017.'),
	(18, '2018', 'Year 2018.'),
    (19, '2019', 'Year 2019.'),
    (20, '2020', 'Year 2020.'),
	(21, '2021', 'Year 2021.');
---------------------------------------------------------------------------------------------------;
---------------------------------------------------------------------------------------------------;
--
-- PostgreSQL database dump complete
--
